==========<> Joypad1 X 
==========<> Joypad1 A 
==========<> Joypad1 B 
==========<> Joypad1 Y 
==========<> Joypad1 L 
==========<> Joypad1 R 
==========<> Joypad1 Select 
==========<> Joypad1 Start 
==========<> Joypad1 Right 
==========<> Joypad1 Right 
==========<> Joypad1 Left 
==========<> Joypad1 Left 
==========<> Joypad1 Down 
==========<> Joypad1 Down 
==========<> Joypad1 Down 
==========<> Joypad1 Up 
==========<> Joypad1 Up 
==========<> Joypad1 Start 
==========<> Joypad1 Select 
==========<> Joypad1 ToggleTurbo A 
==========<> Joypad1 ToggleSticky A 
==========<> Joypad1 A 
==========<> Joypad1 ToggleTurbo B 
==========<> Joypad1 ToggleSticky B 
==========<> Joypad1 B 
==========<> Joypad1 ToggleTurbo X 
==========<> Joypad1 ToggleSticky X 
==========<> Joypad1 X 
==========<> Joypad1 ToggleTurbo Y 
==========<> Joypad1 ToggleSticky Y 
==========<> Joypad1 Y 
==========<> Joypad1 ToggleTurbo L 
==========<> Joypad1 ToggleTurbo L 
==========<> Joypad1 ToggleSticky L 
==========<> Joypad1 ToggleSticky L 
==========<> Joypad1 L 
==========<> Joypad1 L 
==========<> Joypad1 ToggleTurbo R 
==========<> Joypad1 ToggleSticky R 
==========<> Joypad1 R 
==========<> Joypad2 Left 
==========<> Joypad2 Right 
==========<> Joypad2 Up 
==========<> Joypad2 Down 
==========<> Joypad2 Start 
==========<> Joypad2 Select 
==========<> Joypad2 A 
==========<> Joypad2 B 
==========<> Joypad2 X 
==========<> Joypad2 Y 
==========<> Joypad2 L 
==========<> Joypad2 R 
==========<> SoundChannel0 
==========<> SoundChannel0 
==========<> SoundChannel1 
==========<> SoundChannel1 
==========<> SoundChannel2 
==========<> SoundChannel2 
==========<> SoundChannel3 
==========<> SoundChannel3 
==========<> SoundChannel4 
==========<> SoundChannel4 
==========<> SoundChannel5 
==========<> SoundChannel5 
==========<> SoundChannel6 
==========<> SoundChannel6 
==========<> SoundChannel7 
==========<> SoundChannel7 
==========<> SoundChannelsOn 
==========<> SoundChannelsOn 
==========<> BeginRecordingMovie 
==========<> EndRecordingMovie 
==========<> LoadMovie 
==========<> SaveSPC 
==========<> SaveSPC 
==========<> LoadOopsFile 
==========<> LoadFreezeFile 
==========<> LoadFreezeFile 
==========<> LoadFreezeFile 
==========<> SaveFreezeFile 
==========<> SaveFreezeFile 
==========<> SaveFreezeFile 
==========<> QuickLoad000 
==========<> QuickLoad001 
==========<> QuickLoad002 
==========<> QuickLoad003 
==========<> QuickLoad004 
==========<> QuickLoad005 
==========<> QuickLoad006 
==========<> QuickLoad007 
==========<> QuickLoad008 
==========<> QuickSave000 
==========<> QuickSave001 
==========<> QuickSave002 
==========<> QuickSave003 
==========<> QuickSave004 
==========<> QuickSave005 
==========<> QuickSave006 
==========<> QuickSave007 
==========<> QuickSave008 
==========<> Pause 
==========<> Reset 
==========<> SoftReset 
==========<> ExitEmu 
==========<> EmuTurbo 
==========<> ToggleEmuTurbo 
==========<> IncEmuTurbo 
==========<> DecEmuTurbo 
==========<> IncTurboSpeed 
==========<> DecTurboSpeed 
==========<> IncFrameRate 
==========<> DecFrameRate 
==========<> IncFrameTime 
==========<> DecFrameTime 
==========<> SwapJoypads 
==========<> Screenshot 
==========<> ToggleBG0 
==========<> ToggleBG1 
==========<> ToggleBG2 
==========<> ToggleBG3 
==========<> ToggleSprites 
==========<> ToggleTransparency 
==========<> ClipWindows 
==========<> Debugger 
==========<> {Mouse1 L,Superscope Fire,Justifier1 Trigger} 
==========<> {Justifier1 AimOffscreen Trigger,Superscope AimOffscreen} 
==========<> {Mouse1 R,Superscope Cursor,Justifier1 Start} 
==========<> Superscope ToggleTurbo 
==========<> Superscope Pause 